^C:\Workspace\DllHelloWorld\DLLHelloWorld\DLLHelloWorld.vcxproj
C:\Workspace\GodotProjects\CPP DLL Exports\DLLHelloWorld.lib
C:\Workspace\GodotProjects\CPP DLL Exports\DLLHelloWorld.exp
C:\Workspace\GodotProjects\CPP DLL Exports\DLLHelloWorld.ipdb
C:\Workspace\GodotProjects\CPP DLL Exports\DLLHelloWorld.iobj
