^C:\Workspace\DllHelloWorld\Epic\Epic.vcxproj
C:\Workspace\GodotProjects\CPP DLL Exports\Epic.lib
C:\Workspace\GodotProjects\CPP DLL Exports\Epic.exp
C:\Workspace\GodotProjects\CPP DLL Exports\Epic.ipdb
C:\Workspace\GodotProjects\CPP DLL Exports\Epic.iobj
